…
## What is mean total number of steps taken per day?
-Summarize new dataset by date

```r
activity.group<-group_by(activity,date)
activity.group
```

```
## # A tibble: 17,568 x 3
## # Groups:   date [61]
##    steps date       interval
##    <int> <fct>         <int>
##  1    NA 2012-10-01        0
##  2    NA 2012-10-01        5
##  3    NA 2012-10-01       10
##  4    NA 2012-10-01       15
##  5    NA 2012-10-01       20
##  6    NA 2012-10-01       25
##  7    NA 2012-10-01       30
##  8    NA 2012-10-01       35
##  9    NA 2012-10-01       40
## 10    NA 2012-10-01       45
## # ... with 17,558 more rows
```
…
## What is the average daily activity pattern?

- Prepare data to get average number stpes per each interval

```r
 activity.inter.mean<-group_by(activity,interval)%>%summarise(mean=mean(steps,na.rm = T))
activity.inter.mean
```

```
## # A tibble: 288 x 2
##    interval   mean
##       <int>  <dbl>
##  1        0 1.72  
##  2        5 0.340 
##  3       10 0.132 
##  4       15 0.151 
##  5       20 0.0755
##  6       25 2.09  
##  7       30 0.528 
##  8       35 0.868 
##  9       40 0.    
## 10       45 1.47  
## # ... with 278 more rows
```
…
- Sort data by date and then my interval

```r
activity.mean.merge.trsn.order<-setorder(activity.mean.merge.trsn,date,interval)
```

- Prepare data to draw instogram with imputed values in the variable steps

```r
activity.mean.merge.trsn.order.grp<-group_by(activity.mean.merge.trsn.order,date)%>%summarise(new_sum=sum(steps1))
activity.mean.merge.trsn.order.grp
```

```
## # A tibble: 61 x 2
##    date       new_sum
##    <fct>        <dbl>
##  1 2012-10-01  10766.
##  2 2012-10-02    126.
##  3 2012-10-03  11352.
##  4 2012-10-04  12116.
##  5 2012-10-05  13294.
##  6 2012-10-06  15420.
##  7 2012-10-07  11015.
##  8 2012-10-08  10766.
##  9 2012-10-09  12811.
## 10 2012-10-10   9900.
## # ... with 51 more rows
```
…
